{"data":[{"malId":140765,"url":"https://myanimelist.net/manga/140765/Tian_Guan_Cifu","title":"Tian Guan Cifu","titleEnglish":"Heaven Official's Blessing","titleJapanese":"天官赐福","imageUrl":"https://cdn.myanimelist.net/images/manga/2/258222l.jpg","type":"Manhua","chapters":null,"volumes":null,"status":"Publishing","publishing":true,"score":8.81,"rank":43,"popularity":1153,"synopsis":"800 years ago, Xie Lian was a pure-blooded and noble Crown Prince, a well-regarded child of Heaven with unlimited potential. But who knew that, after he ascended and became a god with tens of thousands of worshippers, his fate would take such a sharp downhill turn? He was demoted again and again, and fell to rock bottom.\n\n800 years later, Xie Lian ascended again, but this time, without worshippers and without incense. One day, after returning from collecting scraps, he took a mysterious young man home. And this young man was the Ghost King that made others pale in fear whenever discussed—Hua Cheng.\n\n(Source: Bilibili Comics)","authors":["Mo Xiang Tong Xiu","STARember"],"genres":["Action","Adventure","Boys Love","Drama","Fantasy"],"themes":["Historical","Mythology"]},{"malId":137200,"url":"https://myanimelist.net/manga/137200/Mo_Dao_Zu_Shi","title":"Mo Dao Zu Shi","titleEnglish":"Grandmaster of Demonic Cultivation: Mo Dao Zu Shi","titleJapanese":"魔道祖师","imageUrl":"https://cdn.myanimelist.net/images/manga/1/267154l.jpg","type":"Manhua","chapters":260,"volumes":null,"status":"Finished","publishing":false,"score":8.63,"rank":91,"popularity":1095,"synopsis":"The mere mention of the Yiling Patriarch strikes fear in those who hear it, even though the man behind the title has been deceased for 13 years. It is said that, as a practitioner of demonic cultivation, he raised the dead to wage war against the great cultivation sects. The true name of the Yiling Patriarch is Wei Ying, courtesy name Wuxian, and he has returned from the dead, summoned into the body of a mad man!\n\nWhen Wei Wuxian reawakens, he finds himself in Mo Village, which is owned by a branch family of one of the great sects. No sooner does he have time to get his bearings before his world is thrown into disarray again—by a dismembered arm leaking an immense amount of demonic energy. However, the origin of the limb is only the first mystery. Shortly after, the ever-stoic Lan Wangji—someone whom Wei Wuxian believes to harbor great animosity toward him—arrives to sweep Wei Wuxian off his feet!\n\nAs Wei Wuxian and Lan Wangji seek to unravel the mystery behind the demonic arm, they face both enemies and friends of old, and its link to Wei Wuxian's downfall all those years ago.\n\n[Written by MAL Rewrite]","authors":["Mo Xiang Tong Xiu","Luo Di Cheng Qiu"],"genres":["Action","Adventure","Boys Love","Fantasy","Mystery"],"themes":["Historical","Mythology","Reincarnation"]},{"malId":116312,"url":"https://myanimelist.net/manga/116312/19_Tian","title":"19 Tian","titleEnglish":null,"titleJapanese":"19天","imageUrl":"https://cdn.myanimelist.net/images/manga/3/258684l.jpg","type":"Manhua","chapters":null,"volumes":null,"status":"Publishing","publishing":true,"score":8.57,"rank":114,"popularity":1551,"synopsis":"The mischievous Jian Yi and the level-headed Zhan Zhengxi have been best friends since early childhood. Now, as they are entangled in the follies of high school, their bond has deepened. Jian Yi all but hides his romantic feelings for Zhan Zhengxi, who, despite pretending to dislike Jian Yi's teasing, cannot keep his true emotions from occasionally slipping through.\n\nAmid various festivals, classroom antics, and frequent shenanigans, Jian Yi and Zhan Zhengxi are soon joined by the rebellious delinquent Mo Guanshan and the handsome flirt He Tian. Together, they embrace the vibrant days of youth—always with a hint of romance.\n\n[Written by MAL Rewrite]","authors":["Old Xian"],"genres":["Boys Love","Comedy"],"themes":[]},{"malId":138533,"url":"https://myanimelist.net/manga/138533/Nan_Hao_Shang_Feng","title":"Nan Hao Shang Feng","titleEnglish":null,"titleJapanese":"南号尚风","imageUrl":"https://cdn.myanimelist.net/images/manga/1/254654l.jpg","type":"Manhua","chapters":null,"volumes":null,"status":"Publishing","publishing":true,"score":8.55,"rank":126,"popularity":913,"synopsis":"A comedy about two ordinary high school boys.","authors":["Brownie"],"genres":["Comedy"],"themes":["School"]},{"malId":119072,"url":"https://myanimelist.net/manga/119072/Here_U_Are","title":"Here U Are","titleEnglish":"Here U Are","titleJapanese":"Here U Are","imageUrl":"https://cdn.myanimelist.net/images/manga/1/226061l.jpg","type":"Manhua","chapters":156,"volumes":null,"status":"Finished","publishing":false,"score":8.46,"rank":181,"popularity":624,"synopsis":"Yu Yang is a second-year university student who seems reliable and pleasant. With the commencement of a new term, he is tasked with orienting every freshman he sees on campus. Eventually, his duty leads him to meet Li Huan, a new student with a fairly oppressive height. Besides his intimidating physique, he is taciturn, aloof, and often gives Yu Yang the cold shoulder.\n\nYu Yang, who has done nothing but assist him, immediately grows frustrated by this treatment. However, despite his initial impressions, Yu Yang believes that his chance encounter with Li Huan will transform his future outlook—perhaps even on the prospect of love.\n\n[Written by MAL Rewrite]","authors":["D Jun"],"genres":["Boys Love","Drama","Slice of Life"],"themes":["School"]},{"malId":42001,"url":"https://myanimelist.net/manga/42001/Song_of_the_Long_March","title":"Song of the Long March","titleEnglish":null,"titleJapanese":"長歌行","imageUrl":"https://cdn.myanimelist.net/images/manga/2/168139l.jpg","type":"Manhua","chapters":null,"volumes":null,"status":"Publishing","publishing":true,"score":8.44,"rank":203,"popularity":628,"synopsis":"Shortly after astrology predicts destruction to befall the Tang Dynasty, a coup d'état led by the crown prince Li's very own brother kills him and his wife and sons. Li's daughter, princess Yongning, manages to escape, but is soon declared dead alongside her family. Full of wrath, the princess swears to avenge them as she takes on the identity of a young man, Li Chang Ge, and moves to the Shou province to advance her goals.\n\nLi Chang Ge uses her wits to gain the trust of the Shou emperor and swiftly climbs the military ranks as a brilliant strategist. Captivatingly drawn, Song of the Long March portrays the feisty girl's adolescent journey toward countless unknown adventures, faithful comradeship, as well as formidable enmity awaiting her along the way.\n\n[Written by MAL Rewrite]","authors":["Xia, Da"],"genres":["Action","Adventure","Drama"],"themes":["Historical"]},{"malId":93516,"url":"https://myanimelist.net/manga/93516/SQ__Begin_W_Your_Name","title":"SQ: Begin W/Your Name!","titleEnglish":null,"titleJapanese":"SQ从你的名字开始","imageUrl":"https://cdn.myanimelist.net/images/manga/3/165495l.jpg","type":"Manhua","chapters":9,"volumes":1,"status":"Finished","publishing":false,"score":8.37,"rank":258,"popularity":266,"synopsis":"Sun Jing has a massive crush on a girl she sees at the bus station—feminine, blonde, and absolutely adorable, Qiu Tong is everything Sun Jing desires. But the tomboyish, outgoing Sun Jing cannot bring herself to utter a single word in Qiu Tong's presence. Once she musters up the courage, however, Sun Jing successfully introduces herself and secures a friendship with the cute girl. Although they are only friends for now, Sun Jing will do anything to see Qiu Tong smile; and with her genuine kindness, she might just win Qiu Tong's heart.\n\n[Written by MAL Rewrite]\n\nNote: this entry is for the published volume and not the ongoing webcomic. Please, do not submit any changes.","authors":["Tanjiu"],"genres":["Comedy","Girls Love","Slice of Life"],"themes":["School"]},{"malId":167788,"url":"https://myanimelist.net/manga/167788/Xiao_Mogu","title":"Xiao Mogu","titleEnglish":"Little Mushroom","titleJapanese":"小蘑菇","imageUrl":"https://cdn.myanimelist.net/images/manga/2/297922l.jpg","type":"Manhua","chapters":null,"volumes":null,"status":"Publishing","publishing":true,"score":8.33,"rank":304,"popularity":12310,"synopsis":"In the year 2020, Earth's magnetic poles disappeared and humankind was nearly wiped out by cosmic radiation. Within the span of a hundred years, living creatures began to mutate and devour each other while the remaining humans, numbering in the tens of thousands, struggled bitterly in their man-made bases.\n\nIn the Abyss, home to the mutated xenogenics, there lived a sentient little mushroom. Because it had been nourished by the blood and flesh of the deceased human An Ze, not only did it take on a similar-looking human form, but a similar name as well: An Zhe.\n\nAn Zhe is determined to go to the human base to search for his spore, which had been harvested by humans. Once there, however, he faces the omnipresent risk of discovery and certain death as he tries to keep his non-human nature hidden from the Judges, whose responsibility is to inspect for and eliminate xenogenics like himself. And of all the Judges, Colonel Lu Feng is the most perceptive and merciless—as soon as he determines that someone is a xenogenic, he will execute that person on the spot.\n\nBut An Zhe's mutation goes undetected by Lu Feng's eyes, and so a tale of humans and xenogenics unfolds...\n\n(Source: Peach Flower House)","authors":["Yishisi Zhou","Maomao Tou"],"genres":["Boys Love","Sci-Fi"],"themes":["Psychological"]},{"malId":44711,"url":"https://myanimelist.net/manga/44711/Feng_Shen_Ji_III","title":"Feng Shen Ji III","titleEnglish":null,"titleJapanese":"封神纪III","imageUrl":"https://cdn.myanimelist.net/images/manga/1/78927l.jpg","type":"Manhua","chapters":80,"volumes":null,"status":"Finished","publishing":false,"score":8.24,"rank":408,"popularity":2065,"synopsis":"The sequel and the continuation of Feng Shen Ji II.","authors":["Deng, Zhi Hui","Zheng, Jian He","Cheng, Kin Wo"],"genres":["Action","Fantasy","Supernatural"],"themes":["Historical","Martial Arts"]},{"malId":43915,"url":"https://myanimelist.net/manga/43915/Feng_Shen_Ji_II","title":"Feng Shen Ji II","titleEnglish":null,"titleJapanese":"封神紀Ⅱ","imageUrl":"https://cdn.myanimelist.net/images/manga/3/177766l.jpg","type":"Manhua","chapters":64,"volumes":null,"status":"Finished","publishing":false,"score":8.24,"rank":412,"popularity":1613,"synopsis":"The sequel and the continuation of Feng Shen Ji.","authors":["Deng, Zhi Hui","Zheng, Jian He","Cheng, Kin Wo"],"genres":["Action","Fantasy","Supernatural"],"themes":["Historical","Martial Arts"]},{"malId":1320,"url":"https://myanimelist.net/manga/1320/The_Ravages_of_Time","title":"The Ravages of Time","titleEnglish":null,"titleJapanese":"火鳳燎原","imageUrl":"https://cdn.myanimelist.net/images/manga/4/75197l.jpg","type":"Manhua","chapters":null,"volumes":null,"status":"Publishing","publishing":true,"score":8.2,"rank":462,"popularity":1287,"synopsis":"The Ravages of Time is an adaptation of Romance of the Three Kingdoms, showing the fortunes of Liu Bei, Cao Cao, the Sun family, and the Sima family. The Simas are a successful and rich merchant family, led by the young Sima Yi, who has shown a flair for spotting profitable business venture ever since a young age. The Sima family, however, possesses a sinister side as they command the Handicapped Warriors, a group of mercenary assassins reputed to be infallible.\n\n(Source: Wikipedia)","authors":["Chan, Mou"],"genres":["Action","Adventure"],"themes":["Historical","Military"]},{"malId":3715,"url":"https://myanimelist.net/manga/3715/The_One","title":"The One","titleEnglish":null,"titleJapanese":"獨領風騷","imageUrl":"https://cdn.myanimelist.net/images/manga/3/16312l.jpg","type":"Manhua","chapters":110,"volumes":18,"status":"Finished","publishing":false,"score":8.17,"rank":504,"popularity":916,"synopsis":"Cane Lele was born into the fashion industry. Her mother, Ye Feii, was Taiwan's top model, and her father was also a model, until a tragic airplane crash left Lele without parents.\n\nTherefore it is no surprise that Lele hates the industry, thinking it superficial and unnecessary. Raised by her paternal grandmother, Lele reaches seventeen before she is sucked in by her mother's sister, Ye Feihung, a fashion agent (and former model) who \"convinces\" the reluctant Lele to pose. Lele is averse to the whole idea, until she sees a photo shoot of popular American model Angus Lanson, and she begins to see modeling as an art form.\n\nWhen Aunt Feihung's magazine editor invites Angus Lanson to a meeting of all the top fashion ambassadors, Lele is invited along and is curious to meet Angus. She does not know that Angus' twin elder brother, Eros Lanson, is secretly accompanying his brother. This obviously leads to confusion and is the start of a charming story of Lele's goals: Fashion in New York city, becoming a top model, and love? \n\n(Source: ShoujoMagic)","authors":["Lee, Nicky"],"genres":["Drama","Romance"],"themes":["Psychological","Showbiz"]},{"malId":43913,"url":"https://myanimelist.net/manga/43913/Feng_Shen_Ji","title":"Feng Shen Ji","titleEnglish":null,"titleJapanese":"封神記","imageUrl":"https://cdn.myanimelist.net/images/manga/2/177765l.jpg","type":"Manhua","chapters":38,"volumes":null,"status":"Finished","publishing":false,"score":8.15,"rank":529,"popularity":728,"synopsis":"A messenger of the Heavens has arrived in Zhao Ge, which has been ruled by the Shang dynasty for generations. The current emperor, Zi Zhou, refuses to bow his head before the gods and declares to the messenger that he will no longer accept the tyranny of the Heavens. The gods do not take this kindly; and soon, the emperor of a neighboring land, Wu Jifa, leads a crusade against the rebelling Shang.\n\nDuring the battle, the Shang forces are vastly overwhelmed, and just when the capital is inches away from being taken, Zhou joins the fight. Although he breaks through the enemy ranks and makes his way toward Jifa, out of nowhere a god falls from the sky, landing right before him, prepared to personally deal with the troublemaker.\n\n[Written by MAL Rewrite]","authors":["Deng, Zhi Hui","Zheng, Jian He","Cheng, Kin Wo"],"genres":["Action","Fantasy","Supernatural"],"themes":["Historical","Martial Arts"]},{"malId":79193,"url":"https://myanimelist.net/manga/79193/Doupo_Cangqiong","title":"Doupo Cangqiong","titleEnglish":"Battle Through the Heavens","titleJapanese":"斗破苍穹","imageUrl":"https://cdn.myanimelist.net/images/manga/3/226182l.jpg","type":"Manhua","chapters":null,"volumes":null,"status":"Publishing","publishing":true,"score":7.97,"rank":866,"popularity":878,"synopsis":"The Great Continent of Combat Qi is a place where the strong rule over the weak. Xiao Yan, a once up and coming genius of the Xiao Sect, suddenly lost all his talent at the tender age of 11. Now a 15-year-old boy, Xiao Yan is scorned by the very people who previously looked up to him, and is on the verge of being kicked out of his clan. To make matters worse, his fiancee, Na Lan Yan Ran, asks for an annulment of their engagement. Xiao Yan makes a solemn vow to himself, a vow to be \"trash\" no more and to obtain the strength to become the master of his own fate.\n\nAn intricate tale of hope and despair, Doupo Cangqiong chronicles the story of a fallen prodigy who sets off on a perilous journey to obtain power, and ascend to the peak of Cultivation.\n\n[Written by MAL Rewrite]","authors":["Tian Can Tudou","Ren, Xiang"],"genres":["Action","Adventure","Comedy","Romance","Supernatural"],"themes":[]},{"malId":150293,"url":"https://myanimelist.net/manga/150293/Jingjiu","title":"Jingjiu","titleEnglish":"Salad Days","titleJapanese":"经久","imageUrl":"https://cdn.myanimelist.net/images/manga/3/268218l.jpg","type":"Manhua","chapters":161,"volumes":null,"status":"Finished","publishing":false,"score":7.95,"rank":928,"popularity":12170,"synopsis":"Known as \"the little swan\" of his ballet studio, Shen has big dreams of leaving the humble farming town he grew up in and shooting to stardom. Though soft-spoken and timid, he meets his match in the stoic, wealthy, and equally as intense Jinyi, who pursues boxing next door. An unlikely pair, they cheer each other on and raise each other up through thick and thin. Determined to achieve their separate ambitions in the midst of their personal troubles, will their deep connection be strong enough to endure the journey and take flight?\n\n(Source: Tapas Media)","authors":["Jingshuibian","Tangliuzang"],"genres":["Boys Love","Drama"],"themes":["Performing Arts"]},{"malId":8456,"url":"https://myanimelist.net/manga/8456/½_Prince","title":"½ Prince","titleEnglish":null,"titleJapanese":"½ 王子","imageUrl":"https://cdn.myanimelist.net/images/manga/4/79715l.jpg","type":"Manhua","chapters":82,"volumes":16,"status":"Finished","publishing":false,"score":7.87,"rank":1147,"popularity":613,"synopsis":"When Feng Lan's brother encouraged her to play the virtual reality game Second Life, he told her that as a girl, she'd be doted upon. To prove that she could be a better player than him even without a handicap, she was granted her special request for a male avatar. Her adventures in this online RPG begin, as she discovers both the game and what it's like to be thought of as a boy.","authors":["Choi, Hong Chong","Yu, Wo"],"genres":["Action","Adventure","Comedy","Fantasy","Romance"],"themes":["Video Game"]},{"malId":72303,"url":"https://myanimelist.net/manga/72303/Douluo_Dalu","title":"Douluo Dalu","titleEnglish":null,"titleJapanese":"斗罗大陆","imageUrl":"https://cdn.myanimelist.net/images/manga/4/221353l.jpg","type":"Manhua","chapters":null,"volumes":null,"status":"Publishing","publishing":true,"score":7.83,"rank":1330,"popularity":717,"synopsis":"Tang San spent his life in the Tang Outer Sect, dedicated to the creation and mastery of hidden weapons. Once he stole the secret lore of the Inner Sect to reach the pinnacle of his art, his only way out was death. But after throwing himself off the deadly Hell's Peak he was reborn in a different world, the world of Douluo Dalu, a world where every person has a spirit of their own, and those with powerful spirits can practice their spirit power to rise and become Spirit Masters.\n\nThe spirit that awakens within Tang San is Blue Silver Grass, a useless spirit. Can he overcome the difficulties to reach the high ranks of Spirit Masters and bring the glory of the Tang Sect into this new world?","authors":["Tang Jia San Shao","Mu, Feng Chun"],"genres":["Fantasy"],"themes":["Reincarnation"]},{"malId":103169,"url":"https://myanimelist.net/manga/103169/Douluo_Dalu_II__Jueshi_Tangmen","title":"Douluo Dalu II: Jueshi Tangmen","titleEnglish":null,"titleJapanese":"斗罗大陆 II: 绝世唐门","imageUrl":"https://cdn.myanimelist.net/images/manga/3/190564l.jpg","type":"Manhua","chapters":null,"volumes":null,"status":"Publishing","publishing":true,"score":7.81,"rank":1380,"popularity":2367,"synopsis":"A land without magic, dou-qi or martial arts, but having essence spirits. This is the combat continent 10 000 years after the formation of Tang Sect. A new hero and his friends walk the land. There are new \"Seven Monsters of Shrek.\" Will the Tang Sect be able to struggle through? Or will it crumble due to a new essence system?\n\n(Source: MU)","authors":["Tang Jia San Shao"],"genres":["Action","Drama","Fantasy"],"themes":["Martial Arts"]},{"malId":160537,"url":"https://myanimelist.net/manga/160537/Toutou_Cang_Bu_Zhu","title":"Toutou Cang Bu Zhu","titleEnglish":"My Secret Crush","titleJapanese":"偷偷藏不住","imageUrl":"https://cdn.myanimelist.net/images/manga/1/284907l.jpg","type":"Manhua","chapters":null,"volumes":null,"status":"Publishing","publishing":true,"score":7.81,"rank":1405,"popularity":11890,"synopsis":"Sang Zhi has a secret crush: her brother's college friend Duan Jiaxu. She does everything she can to hide her feelings only to discover he's already noticed. Will she finally find her happy ending when she grows up?\n\n(Source: NHN comico Corp.)","authors":["Zhuyi","Juzhi"],"genres":["Drama","Romance"],"themes":[]},{"malId":143068,"url":"https://myanimelist.net/manga/143068/Zaidu_Yu_Ni","title":"Zaidu Yu Ni","titleEnglish":"Once More","titleJapanese":"再度与你","imageUrl":"https://cdn.myanimelist.net/images/manga/2/257387l.jpg","type":"Manhua","chapters":null,"volumes":null,"status":"Publishing","publishing":true,"score":7.8,"rank":1414,"popularity":14070,"synopsis":"Xun An thought she had missed her chance with Yang Muli back in school. Maybe it was that regret that caused her to work for her old high school as a PE teacher after college. Whatever the reason may be, she'll need to come to terms with her feelings fast! It turns out fate also had plans for Yang Muli to be pulled back to their alma mater as their newest math teacher!\n\n(Source: Tapas Media)","authors":["Hanxu"],"genres":["Drama","Romance"],"themes":[]},{"malId":147014,"url":"https://myanimelist.net/manga/147014/Aisha","title":"Aisha","titleEnglish":null,"titleJapanese":"艾莎","imageUrl":"https://cdn.myanimelist.net/images/manga/2/288367l.jpg","type":"Manhua","chapters":null,"volumes":null,"status":"Publishing","publishing":true,"score":7.74,"rank":1647,"popularity":14846,"synopsis":"The twins who have lost both their mother and father had their humongous inheritance stolen by their evil stepmother. The three sons of their stepmother have a special relationship towards their non-biological sisters. Thus, a scene of love and hate occurred in this old mansion. This is a fairy tale of romance and vengeance.\n\n(Source: Kuaikan Manhua, translated)","authors":["Zhang, Jing"],"genres":["Drama","Mystery","Suspense"],"themes":["Psychological"]},{"malId":142675,"url":"https://myanimelist.net/manga/142675/Quanqiu_Gaokao","title":"Quanqiu Gaokao","titleEnglish":"Global Examination","titleJapanese":"全球高考","imageUrl":"https://cdn.myanimelist.net/images/manga/3/271080l.jpg","type":"Manhua","chapters":null,"volumes":null,"status":"Publishing","publishing":true,"score":7.73,"rank":1700,"popularity":16153,"synopsis":"This is an examination that puts your life at stake. Answer a plethora of questions, pass the exam, and you may live. Two-faced examiner, Qin Jiu, meets the cold examinee, You Huo. In this inhumane system, both of them who have lost their memories go head to head against each other. Despite that, they have a strong mutual understanding. Alarms go off and the system collapses time and time again. During which, their memories gradually return. It turns out that even at the end of the world where there's only dust left, you're still the first person I met. What's so great about this system? We'll just destroy it. The world is brilliant and grand still, so welcome home.\n\n(Source: Bilibili Comics)","authors":["Mu, Suli","E Ze"],"genres":["Boys Love","Mystery"],"themes":["Survival"]},{"malId":132828,"url":"https://myanimelist.net/manga/132828/Liang_Bu_Yi","title":"Liang Bu Yi","titleEnglish":"No Doubt In Us","titleJapanese":"两不疑","imageUrl":"https://cdn.myanimelist.net/images/manga/2/257382l.jpg","type":"Manhua","chapters":null,"volumes":null,"status":"Finished","publishing":false,"score":7.72,"rank":1750,"popularity":20999,"synopsis":"His Majesty comes close; he's so handsome that the flushed queen pushes him reflexively and falls with him into a pool of water. Then they swap their bodies. The way to swap back is unknown. The most important thing is that the emperor is quite angry now!! Since they can't return to normal, the emperor has to deal with his mean imperial concubines that he doesn't even know, and the queen has to mediate between high-ranking ministries...\n\n(Source: Webnovel, edited)","authors":["Lu Ye Qian He","You Zhi Jiaozi"],"genres":["Comedy","Romance"],"themes":["Historical"]},{"malId":121805,"url":"https://myanimelist.net/manga/121805/Lian_Shi_Yingcaose","title":"Lian Shi Yingcaose","titleEnglish":"Love Like Cherry Blossoms","titleJapanese":"恋是樱草色","imageUrl":"https://cdn.myanimelist.net/images/manga/3/268903l.jpg","type":"Manhua","chapters":null,"volumes":5,"status":"Finished","publishing":false,"score":7.72,"rank":1744,"popularity":20909,"synopsis":"He knows her secret. She knows his secret too. He is the coolest guy in school. She is the curve wrecker of class. They make a deal in exchange to keep each other's secret. They should be strangers after that promise. But he offers to help her confess to her crush at the same time. Is that true? Is he just teasing her? Or...?\n\n(Source: Sidewalk Group)","authors":["Hanxu"],"genres":["Romance"],"themes":["Love Polygon","School"]},{"malId":118730,"url":"https://myanimelist.net/manga/118730/Quanzhi_Gaoshou","title":"Quanzhi Gaoshou","titleEnglish":"The King's Avatar","titleJapanese":"全职高手","imageUrl":"https://cdn.myanimelist.net/images/manga/1/220436l.jpg","type":"Manhua","chapters":null,"volumes":null,"status":"Publishing","publishing":true,"score":7.69,"rank":1879,"popularity":3535,"synopsis":"Widely regarded as a trailblazer and top-tier professional player in the online multiplayer game Glory, Ye Xiu is dubbed the \"Battle God\" for his skills and contributions to the game over the years. However, when forced to retire from the team and to leave his gaming career behind, he finds work at a nearby internet café. There, when Glory launches its tenth server, he throws himself into the game once more using a new character named \"Lord Grim.\"\n\nYe Xiu's early achievements on the new server immediately catch the attention of many players, as well as the big guilds, leaving them to wonder about the identity of this exceptional player. However, while he possesses ten years of experience and in-depth knowledge, starting afresh with neither sponsors nor a team in a game that has changed over the years presents numerous challenges. Along with talented new comrades, Ye Xiu once again dedicates himself to traversing the path to Glory's summit!\n\n[Written by MAL Rewrite]","authors":["Hudie Lan","Changpan Yongzhe"],"genres":["Action"],"themes":["Video Game"]}],"pagination":{"currentPage":1,"lastPage":19,"hasNextPage":true,"totalItems":459,"itemsPerPage":25}}